jsonFlickrApi({ "photos": { "page": 1, "pages": 50, "perpage": 10, "total": "500", 
        "photo": [
          { "id": "10045699245", "owner": "61671941@N00", "secret": "a12a3f8875", "server": "2833", "farm": 3, "title": "HUB-14 Swag: part 1", "ispublic": 1, "isfriend": 0, "isfamily": 0 },
      { "id": "10048272704", "owner": "53726327@N03", "secret": "b3f006c552", "server": "2841", "farm": 3, "title": "Summertime...", "ispublic": 1, "isfriend": 0, "isfamily": 0 },
      { "id": "10045868905", "owner": "53262562@N06", "secret": "0927258c1f", "server": "7450", "farm": 8, "title": "The Bison and the Cloud", "ispublic": 1, "isfriend": 0, "isfamily": 0 },
      { "id": "10045766085", "owner": "10433743@N06", "secret": "4c41e95e8e", "server": "7321", "farm": 8, "title": "Living on the Edge", "ispublic": 1, "isfriend": 0, "isfamily": 0 },
      { "id": "10045259146", "owner": "93595942@N08", "secret": "9499361975", "server": "7409", "farm": 8, "title": "Road to Val d'Orcia - Explore #5", "ispublic": 1, "isfriend": 0, "isfamily": 0 },
      { "id": "10045165135", "owner": "61711462@N07", "secret": "00194fb1f0", "server": "3800", "farm": 4, "title": "Antiguos negocios", "ispublic": 1, "isfriend": 0, "isfamily": 0 },
      { "id": "10044991384", "owner": "26522673@N07", "secret": "c78f26a6c9", "server": "2878", "farm": 3, "title": "Sunset at the Gate", "ispublic": 1, "isfriend": 0, "isfamily": 0 },
      { "id": "10044623015", "owner": "21743589@N04", "secret": "e8ee5c0f39", "server": "2854", "farm": 3, "title": "274\/365 | ask again later", "ispublic": 1, "isfriend": 0, "isfamily": 0 },
      { "id": "10044516334", "owner": "12892868@N04", "secret": "beb41df5e6", "server": "5344", "farm": 6, "title": "Blue stairrail.... - on Explore 2013-10-02 !:)", "ispublic": 1, "isfriend": 0, "isfamily": 0 },
      { "id": "10044360813", "owner": "8645675@N02", "secret": "fe0a6df483", "server": "7443", "farm": 8, "title": "Oh Magarette", "ispublic": 1, "isfriend": 0, "isfamily": 0 }
    ] }, "stat": "ok" })
